Bertomeu, Ma, and Marinovic (2020, TAR)
…
See my note for the derivation.

df <- df %>% 
  mutate(e = rnorm(N*Time, sd = sigma_e)) %>% 
  mutate(x = rnorm(N*Time, mean = (sigma_x^2)/(sigma_e^2) * e,
                           sd   = sigma_x^2 * (1 - (sigma_x^2)/(sigma_e^2))))

Next, we delete the private signal \(x_t\) if the manager is informed (\(\theta_t = 0\)).

df <- df %>% 
  mutate(x = if_else(theta == 0, x, NA_real_))
df

## # A tibble: 10,000 x 6
##        i     t     p theta       e        x
##    <int> <int> <dbl> <dbl>   <dbl>    <dbl>
##  1     1     1 0.240     0 -0.273  -0.150  
##  2     1     2 0.11      0  0.706   0.182  
##  3     1     3 0.11      0 -0.277  -0.00401
##  4     1     4 0.11      1 -0.684  NA      
##  5     1     5 0.96      0  0.0404  0.0292 
##  6     1     6 0.11      1  0.0300 NA      
##  7     1     7 0.96      0  0.647   0.149  
##  8     1     8 0.11      0 -0.718  -0.187  
##  9     1     9 0.11      0  0.285  -0.0101 
## 10     1    10 0.11      0  0.495   0.111  
## # ... with 9,990 more rows
…
# Compute P_nd for each p
df <- df %>% 
  mutate(P_nd = map_dbl(.x = p, .f = Pnd_splined))

Now we can compute the utility of disclosure and thus the disclosure decision.

df <- df %>% 
  mutate(u = alpha * (x - P_nd) + beta + rnorm(N*Time)) %>% 
  mutate(d = if_else(theta == 1 | u < 0, 0, 1))
df

## # A tibble: 10,000 x 9
##        i     t     p theta       e        x     P_nd      u     d
##    <int> <int> <dbl> <dbl>   <dbl>    <dbl>    <dbl>  <dbl> <dbl>
##  1     1     1 0.240     0 -0.273  -0.150   -0.110   -0.185     0
##  2     1     2 0.11      0  0.706   0.182   -0.771    2.64      1
##  3     1     3 0.11      0 -0.277  -0.00401 -0.771    2.59      1
##  4     1     4 0.11      1 -0.684  NA       -0.771   NA         0
##  5     1     5 0.96      0  0.0404  0.0292  -0.00424  2.39      1
##  6     1     6 0.11      1  0.0300 NA       -0.771   NA         0
##  7     1     7 0.96      0  0.647   0.149   -0.00424  2.64      1
##  8     1     8 0.11      0 -0.718  -0.187   -0.771    2.22      1
##  9     1     9 0.11      0  0.285  -0.0101  -0.771    3.52      1
## 10     1    10 0.11      0  0.495   0.111   -0.771    2.53      1
## # ... with 9,990 more rows

We delete the value of \(x_t\) for non-disclosure firms.

df <- df %>% 
  mutate(x = if_else(d == 1, x, NA_real_))
df

## # A tibble: 10,000 x 9
##        i     t     p theta       e        x     P_nd      u     d
##    <int> <int> <dbl> <dbl>   <dbl>    <dbl>    <dbl>  <dbl> <dbl>
##  1     1     1 0.240     0 -0.273  NA       -0.110   -0.185     0
##  2     1     2 0.11      0  0.706   0.182   -0.771    2.64      1
##  3     1     3 0.11      0 -0.277  -0.00401 -0.771    2.59      1
##  4     1     4 0.11      1 -0.684  NA       -0.771   NA         0
##  5     1     5 0.96      0  0.0404  0.0292  -0.00424  2.39      1
##  6     1     6 0.11      1  0.0300 NA       -0.771   NA         0
##  7     1     7 0.96      0  0.647   0.149   -0.00424  2.64      1
##  8     1     8 0.11      0 -0.718  -0.187   -0.771    2.22      1
##  9     1     9 0.11      0  0.285  -0.0101  -0.771    3.52      1
## 10     1    10 0.11      0  0.495   0.111   -0.771    2.53      1
## # ... with 9,990 more rows
…
Finally, we drop variables that are not observed.

In the next section, we check if the estimation procedure can recover the parameters.

df_observed <- df %>% 
  select(i, t, e, x, d)
df_observed

## # A tibble: 10,000 x 5
##        i     t       e        x     d
##    <int> <int>   <dbl>    <dbl> <dbl>
##  1     1     1 -0.273  NA           0
##  2     1     2  0.706   0.182       1
##  3     1     3 -0.277  -0.00401     1
##  4     1     4 -0.684  NA           0
##  5     1     5  0.0404  0.0292      1
##  6     1     6  0.0300 NA           0
##  7     1     7  0.647   0.149       1
##  8     1     8 -0.718  -0.187       1
##  9     1     9  0.285  -0.0101      1
## 10     1    10  0.495   0.111       1
## # ... with 9,990 more rows
…
